<svg width="14" height="14" viewBox="0 0 14 14" fill="none" xmlns="http://www.w3.org/2000/svg">
<path fill-rule="evenodd" clip-rule="evenodd" d="M0.583344 3.50008C0.583344 2.21142 1.62801 1.16675 2.91668 1.16675H11.0833C12.372 1.16675 13.4167 2.21142 13.4167 3.50008V11.0834C13.4167 12.3721 12.372 13.4167 11.0833 13.4167H2.91668C1.62801 13.4167 0.583344 12.3721 0.583344 11.0834V3.50008ZM2.91668 2.33341C2.27234 2.33341 1.75001 2.85575 1.75001 3.50008V11.0834C1.75001 11.7277 2.27234 12.2501 2.91668 12.2501H11.0833C11.7277 12.2501 12.25 11.7277 12.25 11.0834V3.50008C12.25 2.85575 11.7277 2.33341 11.0833 2.33341H2.91668Z" fill="#4B5563"/>
<path fill-rule="evenodd" clip-rule="evenodd" d="M4.08333 0C4.4055 0 4.66667 0.261167 4.66667 0.583333V1.75C4.66667 2.07217 4.4055 2.33333 4.08333 2.33333C3.76117 2.33333 3.5 2.07217 3.5 1.75V0.583333C3.5 0.261167 3.76117 0 4.08333 0Z" fill="#4B5563"/>
<path fill-rule="evenodd" clip-rule="evenodd" d="M9.91668 0C10.2388 0 10.5 0.261167 10.5 0.583333V1.75C10.5 2.07217 10.2388 2.33333 9.91668 2.33333C9.59451 2.33333 9.33334 2.07217 9.33334 1.75V0.583333C9.33334 0.261167 9.59451 0 9.91668 0Z" fill="#4B5563"/>
<path fill-rule="evenodd" clip-rule="evenodd" d="M0.583344 4.66659C0.583344 4.34442 0.844511 4.08325 1.16668 4.08325H12.8333C13.1555 4.08325 13.4167 4.34442 13.4167 4.66659C13.4167 4.98875 13.1555 5.24992 12.8333 5.24992H1.16668C0.844511 5.24992 0.583344 4.98875 0.583344 4.66659Z" fill="#4B5563"/>
<path fill-rule="evenodd" clip-rule="evenodd" d="M3.79166 7.58333C3.79166 7.26117 4.05282 7 4.37499 7H5.54166C5.86382 7 6.12499 7.26117 6.12499 7.58333C6.12499 7.9055 5.86382 8.16667 5.54166 8.16667H4.37499C4.05282 8.16667 3.79166 7.9055 3.79166 7.58333Z" fill="#4B5563"/>
<path fill-rule="evenodd" clip-rule="evenodd" d="M7.875 7.58333C7.875 7.26117 8.13617 7 8.45833 7H9.625C9.94717 7 10.2083 7.26117 10.2083 7.58333C10.2083 7.9055 9.94717 8.16667 9.625 8.16667H8.45833C8.13617 8.16667 7.875 7.9055 7.875 7.58333Z" fill="#4B5563"/>
<path fill-rule="evenodd" clip-rule="evenodd" d="M3.79166 9.91658C3.79166 9.59442 4.05282 9.33325 4.37499 9.33325H5.54166C5.86382 9.33325 6.12499 9.59442 6.12499 9.91658C6.12499 10.2388 5.86382 10.4999 5.54166 10.4999H4.37499C4.05282 10.4999 3.79166 10.2388 3.79166 9.91658Z" fill="#4B5563"/>
<path fill-rule="evenodd" clip-rule="evenodd" d="M7.875 9.91658C7.875 9.59442 8.13617 9.33325 8.45833 9.33325H9.625C9.94717 9.33325 10.2083 9.59442 10.2083 9.91658C10.2083 10.2388 9.94717 10.4999 9.625 10.4999H8.45833C8.13617 10.4999 7.875 10.2388 7.875 9.91658Z" fill="#4B5563"/>
</svg>
